Test R Markdown
…
Convert to hourly data and get rid of minutes and seconds

 anytime() from the anytime package [@R-anytime]

cryptodata$ts_index <- anytime(paste0(cryptodata$pkDummy,':00:00')) 

 as_tsibble() from the tsibble package [@R-tsibble]

cryptodata <- as_tsibble(cryptodata, index=ts_index, key=symbol)

Scan gaps

scan_gaps(cryptodata)

## # A tsibble: 25,623 x 2 [1h] <UTC>
## # Key:       symbol [182]
##    symbol ts_index           
##    <chr>  <dttm>             
##  1 AAB    2020-10-16 22:00:00
##  2 AAB    2020-10-16 23:00:00
##  3 AAB    2020-10-17 00:00:00
##  4 AAB    2020-10-17 01:00:00
##  5 AAB    2020-10-17 02:00:00
##  6 AAB    2020-10-17 03:00:00
##  7 AAB    2020-10-17 04:00:00
##  8 AAB    2020-10-17 05:00:00
##  9 AAB    2020-10-17 06:00:00
## 10 AAB    2020-10-17 07:00:00
## #  with 25,613 more rows

Fill gaps

cryptodata <- fill_gaps(cryptodata)

Now looking at the data again, there are 25623 additional rows that were added as implicitly missing in the data:

cryptodata

## # A tsibble: 161,759 x 34 [1h] <UTC>
## # Key:       symbol [191]
##    pair  symbol quote_currency ask_1_price ask_1_quantity ask_2_price
##    <chr> <chr>  <chr>                <dbl>          <dbl>       <dbl>
##  1 AABU AAB    USD                  0.390           104.       0.39 
##  2 AABU AAB    USD                  0.390           104.       0.39 
##  3 AABU AAB    USD                  0.390           104.       0.39 
##  4 AABU AAB    USD                  0.390           104.       0.39 
##  5 AABU AAB    USD                  0.390           104.       0.39 
##  6 AABU AAB    USD                  0.390           104.       0.39 
##  7 AABU AAB    USD                  0.390           104.       0.39 
##  8 AABU AAB    USD                  0.390           104.       0.390
##  9 AABU AAB    USD                  0.390           104.       0.390
## 10 AABU AAB    USD                  0.390           104.       0.390
## #  with 161,749 more rows, and 28 more variables: ask_2_quantity <dbl>,
## #   ask_3_price <dbl>, ask_3_quantity <dbl>, ask_4_price <dbl>,
## #   ask_4_quantity <dbl>, ask_5_price <dbl>, ask_5_quantity <dbl>,
## #   bid_1_price <dbl>, bid_1_quantity <dbl>, bid_2_price <dbl>,
## #   bid_2_quantity <dbl>, bid_3_price <dbl>, bid_3_quantity <dbl>,
## #   bid_4_price <dbl>, bid_4_quantity <dbl>, bid_5_price <dbl>,
## #   bid_5_quantity <dbl>, date_time_utc <dttm>, date <date>, pkDummy <chr>,
## #   pkey <chr>, trade_usd_1 <dbl>, trade_usd_2 <dbl>, trade_usd_3 <dbl>,
## #   trade_usd_4 <dbl>, trade_usd_5 <dbl>, price_usd <dbl>, ts_index <dttm>
…
Here is an example showing the results for the subset of data related to the Ethereum cryptocurrency (symbol == ETH) showing 30 rows and the relevant columns we just calculated:

print(select(filter(cryptodata, symbol == 'ETH'),date_time_utc, price_usd, lagged_price_1h, lagged_price_24h, target_price_24h), n=30)

## Adding missing grouping variables: `symbol`

## # A tibble: 988 x 6
## # Groups:   symbol [1]
##    symbol date_time_utc       price_usd lagged_price_1h lagged_price_24h
##    <chr>  <dttm>                  <dbl>           <dbl>            <dbl>
##  1 ETH    2020-09-09 11:00:38      347.             NA               NA 
##  2 ETH    2020-09-09 12:00:39      348.            347.              NA 
##  3 ETH    2020-09-09 13:00:39      347.            348.              NA 
##  4 ETH    2020-09-09 14:00:38      348.            347.              NA 
##  5 ETH    2020-09-09 15:00:39      353.            348.              NA 
##  6 ETH    2020-09-09 16:00:39      353.            353.              NA 
##  7 ETH    2020-09-09 17:00:40      351.            353.              NA 
##  8 ETH    2020-09-09 18:00:38      352.            351.              NA 
##  9 ETH    2020-09-09 19:00:39      359.            352.              NA 
## 10 ETH    2020-09-09 20:00:38      356.            359.              NA 
## 11 ETH    2020-09-09 21:00:39      353.            356.              NA 
## 12 ETH    2020-09-09 22:00:39      353.            353.              NA 
## 13 ETH    2020-09-09 23:00:38      355.            353.              NA 
## 14 ETH    2020-09-10 00:00:39      351.            355.              NA 
## 15 ETH    2020-09-10 01:00:39      355.            351.              NA 
## 16 ETH    2020-09-10 02:00:39      368.            355.              NA 
## 17 ETH    2020-09-10 03:00:40      367.            368.              NA 
## 18 ETH    2020-09-10 04:00:39      371.            367.              NA 
## 19 ETH    2020-09-10 05:00:39      373.            371.              NA 
## 20 ETH    2020-09-10 06:00:39      370.            373.              NA 
## 21 ETH    2020-09-10 07:00:40      367.            370.              NA 
## 22 ETH    2020-09-10 08:00:46      363.            367.              NA 
## 23 ETH    2020-09-10 09:00:39      364.            363.              NA 
## 24 ETH    2020-09-10 10:00:39      365.            364.              NA 
## 25 ETH    2020-09-10 11:00:38      363.            365.             347.
## 26 ETH    2020-09-10 12:00:39      365.            363.             348.
## 27 ETH    2020-09-10 13:00:39      372.            365.             347.
## 28 ETH    2020-09-10 14:00:40      377.            372.             348.
## 29 ETH    2020-09-10 15:00:39      367.            377.             353.
## 30 ETH    2020-09-10 16:00:39      372.            367.             353.
## #  with 958 more rows, and 1 more variable: target_price_24h <dbl>
…
Our data now has the new columns training (train, test or holdout) and split (numbers 1-5) added to it, lets take a look at the new columns:

select(cryptodata, training, split, date)

## Adding missing grouping variables: `symbol`

## # A tibble: 117,460 x 4
## # Groups:   symbol [137]
##    symbol training split date      
##    <chr>  <chr>    <dbl> <date>    
##  1 XTZ    train        1 2020-08-22
##  2 EOS    train        1 2020-08-22
##  3 XZC    train        1 2020-08-22
##  4 PPC    train        1 2020-08-22
##  5 BCH    train        1 2020-08-22
##  6 POA20  train        1 2020-08-22
##  7 BNB    train        1 2020-08-22
##  8 COCOS  train        1 2020-08-22
##  9 ETC    train        1 2020-08-22
## 10 NEO    train        1 2020-08-22
## #  with 117,450 more rows
…
Nest data

[ADD HERE]

 explain goal and method

 First make sure groupings are correct

cryptodata <- group_by(cryptodata, symbol, split, training)

Example nesting data:

nest(cryptodata) 

## # A tibble: 1,370 x 4
## # Groups:   symbol, training, split [1,370]
##    symbol training split data               
##    <chr>  <chr>    <dbl> <list>             
##  1 XTZ    train        1 <tibble [132  11]>
##  2 EOS    train        1 <tibble [222  11]>
##  3 XZC    train        1 <tibble [114  11]>
##  4 PPC    train        1 <tibble [131  11]>
##  5 BCH    train        1 <tibble [131  11]>
##  6 POA20  train        1 <tibble [132  11]>
##  7 BNB    train        1 <tibble [132  11]>
##  8 COCOS  train        1 <tibble [110  11]>
##  9 ETC    train        1 <tibble [204  11]>
## 10 NEO    train        1 <tibble [132  11]>
## #  with 1,360 more rows
…
Now join all nested data into the same dataframe

# Join train and test
cryptodata_nested <- left_join(cryptodata_train, cryptodata_test,by = c("symbol", "split"))
# Join holdout
cryptodata_nested <- left_join(cryptodata_nested, cryptodata_holdout, by = c("symbol"))

New data:

cryptodata_nested

## # A tibble: 565 x 5
## # Groups:   symbol, split [565]
##    symbol split train_data          test_data          holdout_data      
##    <chr>  <dbl> <list>              <list>             <list>            
##  1 XTZ        1 <tibble [100  11]> <tibble [33  11]> <tibble [34  11]>
##  2 EOS        1 <tibble [184  11]> <tibble [56  11]> <tibble [56  11]>
##  3 XZC        1 <tibble [22  11]>  <tibble [29  11]> <tibble [29  11]>
##  4 PPC        1 <tibble [99  11]>  <tibble [33  11]> <tibble [36  11]>
##  5 BCH        1 <tibble [99  11]>  <tibble [33  11]> <tibble [37  11]>
##  6 POA20      1 <tibble [100  11]> <tibble [33  11]> <tibble [35  11]>
##  7 BNB        1 <tibble [100  11]> <tibble [33  11]> <tibble [35  11]>
##  8 COCOS      1 <tibble [67  11]>  <tibble [28  11]> <tibble [29  11]>
##  9 ETC        1 <tibble [166  11]> <tibble [52  11]> <tibble [52  11]>
## 10 NEO        1 <tibble [100  11]> <tibble [33  11]> <tibble [34  11]>
## #  with 555 more rows
…
Example Simple Model

First need to run example normal lm model, etc

Using Functional Programming

linear_model <- function(df){
  lm(target_price_24h ~ ., data = df) #NEED TO REMOVE 0 VARIANCE COLUMNS (WHICH ONES? ANY LEFT?)
}

Can now use it for map()

cryptodata_nested %>% mutate(lm_model = map(train_data, linear_model))

## # A tibble: 565 x 6
## # Groups:   symbol, split [565]
##    symbol split train_data          test_data         holdout_data      lm_model
##    <chr>  <dbl> <list>              <list>            <list>            <list>  
##  1 XTZ        1 <tibble [100  11]> <tibble [33  11 <tibble [34  11 <lm>    
##  2 EOS        1 <tibble [184  11]> <tibble [56  11 <tibble [56  11 <lm>    
##  3 XZC        1 <tibble [22  11]>  <tibble [29  11 <tibble [29  11 <lm>    
##  4 PPC        1 <tibble [99  11]>  <tibble [33  11 <tibble [36  11 <lm>    
##  5 BCH        1 <tibble [99  11]>  <tibble [33  11 <tibble [37  11 <lm>    
##  6 POA20      1 <tibble [100  11]> <tibble [33  11 <tibble [35  11 <lm>    
##  7 BNB        1 <tibble [100  11]> <tibble [33  11 <tibble [35  11 <lm>    
##  8 COCOS      1 <tibble [67  11]>  <tibble [28  11 <tibble [29  11 <lm>    
##  9 ETC        1 <tibble [166  11]> <tibble [52  11 <tibble [52  11 <lm>    
## 10 NEO        1 <tibble [100  11]> <tibble [33  11 <tibble [34  11 <lm>    
## #  with 555 more rows
…
## Warning in train.default(x, y, weights = w, ...): You are trying to do
## regression and your outcome only has two possible values Are you trying to do
## classification? If so, use a 2 level factor as your outcome column.

## Warning: Problem with `mutate()` input `lm_model`.
##  You are trying to do regression and your outcome only has two possible values Are you trying to do classification? If so, use a 2 level factor as your outcome column.
##  Input `lm_model` is `map(train_data, linear_model_caret)`.
##  The error occurred in group 444: symbol = "SPC", split = 4.

## Warning in train.default(x, y, weights = w, ...): You are trying to do
## regression and your outcome only has two possible values Are you trying to do
## classification? If so, use a 2 level factor as your outcome column.

## # A tibble: 565 x 6
## # Groups:   symbol, split [565]
##    symbol split train_data          test_data         holdout_data      lm_model
##    <chr>  <dbl> <list>              <list>            <list>            <list>  
##  1 XTZ        1 <tibble [100  11]> <tibble [33  11 <tibble [34  11 <train> 
##  2 EOS        1 <tibble [184  11]> <tibble [56  11 <tibble [56  11 <train> 
##  3 XZC        1 <tibble [22  11]>  <tibble [29  11 <tibble [29  11 <train> 
##  4 PPC        1 <tibble [99  11]>  <tibble [33  11 <tibble [36  11 <train> 
##  5 BCH        1 <tibble [99  11]>  <tibble [33  11 <tibble [37  11 <train> 
##  6 POA20      1 <tibble [100  11]> <tibble [33  11 <tibble [35  11 <train> 
##  7 BNB        1 <tibble [100  11]> <tibble [33  11 <tibble [35  11 <train> 
##  8 COCOS      1 <tibble [67  11]>  <tibble [28  11 <tibble [29  11 <train> 
##  9 ETC        1 <tibble [166  11]> <tibble [52  11 <tibble [52  11 <train> 
## 10 NEO        1 <tibble [100  11]> <tibble [33  11 <tibble [34  11 <train> 
## #  with 555 more rows
…
