Section - 3 Data Prep | CryptoResearchPaper.utf8
…
3.3.1.1 Convert to hourly data and get rid of minutes and seconds

… anytime() from the anytime package [@R-anytime]…

cryptodata$ts_index <- anytime(paste0(cryptodata$pkDummy,':00:00')) 

… as_tsibble() from the tsibble package [@R-tsibble]…

cryptodata <- as_tsibble(cryptodata, index=ts_index, key=symbol)

3.3.2 Scan gaps

scan_gaps(cryptodata)

## # A tsibble: 30,591 x 2 [1h] <America/Denver>
## # Key:       symbol [185]
##    symbol ts_index           
##    <chr>  <dttm>             
##  1 AAB    2020-10-16 22:00:00
##  2 AAB    2020-10-16 23:00:00
##  3 AAB    2020-10-17 00:00:00
##  4 AAB    2020-10-17 01:00:00
##  5 AAB    2020-10-17 02:00:00
##  6 AAB    2020-10-17 03:00:00
##  7 AAB    2020-10-17 04:00:00
##  8 AAB    2020-10-17 05:00:00
##  9 AAB    2020-10-17 06:00:00
## 10 AAB    2020-10-17 07:00:00
## # ... with 30,581 more rows

3.3.3 Fill gaps

cryptodata <- fill_gaps(cryptodata)

Now looking at the data again, there are 30591 additional rows that were added as implicitly missing in the data:

cryptodata

## # A tsibble: 198,590 x 34 [1h] <America/Denver>
## # Key:       symbol [196]
##    date_time_utc       pair  symbol quote_currency ask_1_price ask_1_quantity ask_2_price ask_2_quantity ask_3_price ask_3_quantity ask_4_price ask_4_quantity
##    <dttm>              <chr> <chr>  <chr>                <dbl>          <dbl>       <dbl>          <dbl>       <dbl>          <dbl>       <dbl>          <dbl>
##  1 2020-09-25 15:04:39 AABU~ AAB    USD                  0.390           104.       0.39           320         0.621            4.5       1               99  
##  2 2020-09-25 16:04:36 AABU~ AAB    USD                  0.390           104.       0.39           320         0.619            4.5       1               99  
##  3 2020-09-25 17:04:37 AABU~ AAB    USD                  0.390           104.       0.39           320         0.618            4.5       1               99  
##  4 2020-09-25 18:04:40 AABU~ AAB    USD                  0.390           104.       0.39           320         0.617            4.5       1               99  
##  5 2020-09-25 19:04:40 AABU~ AAB    USD                  0.390           104.       0.39           320         0.615            4.5       1               99  
##  6 2020-09-25 20:04:41 AABU~ AAB    USD                  0.390           104.       0.39           320         0.614            4.5       1               99  
##  7 2020-09-25 21:04:41 AABU~ AAB    USD                  0.390           104.       0.39           320         0.613            4.5       1               99  
##  8 2020-09-25 22:04:38 AABU~ AAB    USD                  0.390           104.       0.390           45.3       0.39           320         0.611            4.5
##  9 2020-09-25 23:04:32 AABU~ AAB    USD                  0.390           104.       0.390           45.3       0.39           320         0.610            4.5
## 10 2020-09-26 00:04:37 AABU~ AAB    USD                  0.390           104.       0.390           45.3       0.39           320         0.608            4.5
## # ... with 198,580 more rows, and 22 more variables: ask_5_price <dbl>, ask_5_quantity <dbl>, bid_1_price <dbl>, bid_1_quantity <dbl>, bid_2_price <dbl>,
## #   bid_2_quantity <dbl>, bid_3_price <dbl>, bid_3_quantity <dbl>, bid_4_price <dbl>, bid_4_quantity <dbl>, bid_5_price <dbl>, bid_5_quantity <dbl>, date <date>,
## #   pkDummy <chr>, pkey <chr>, trade_usd_1 <dbl>, trade_usd_2 <dbl>, trade_usd_3 <dbl>, trade_usd_4 <dbl>, trade_usd_5 <dbl>, price_usd <dbl>, ts_index <dttm>
…
Here is an example showing the results for the subset of data related to the Ethereum cryptocurrency (symbol == ‘ETH’) showing 30 rows and the relevant columns we just calculated:

print(select(filter(cryptodata, symbol == 'ETH'),date_time_utc, price_usd, lagged_price_1h, lagged_price_24h, target_price_24h), n=30)

## Adding missing grouping variables: `symbol`

## # A tibble: 1,058 x 6
## # Groups:   symbol [1]
##    symbol date_time_utc       price_usd lagged_price_1h lagged_price_24h target_price_24h
##    <chr>  <dttm>                  <dbl>           <dbl>            <dbl>            <dbl>
##  1 ETH    2020-09-09 11:00:38      347.             NA               NA              363.
##  2 ETH    2020-09-09 12:00:39      348.            347.              NA              365.
##  3 ETH    2020-09-09 13:00:39      347.            348.              NA              372.
##  4 ETH    2020-09-09 14:00:38      348.            347.              NA              377.
##  5 ETH    2020-09-09 15:00:39      353.            348.              NA              367.
##  6 ETH    2020-09-09 16:00:39      353.            353.              NA              372.
##  7 ETH    2020-09-09 17:00:40      351.            353.              NA              367.
##  8 ETH    2020-09-09 18:00:38      352.            351.              NA              367.
##  9 ETH    2020-09-09 19:00:39      359.            352.              NA              364.
## 10 ETH    2020-09-09 20:00:38      356.            359.              NA              364.
## 11 ETH    2020-09-09 21:00:39      353.            356.              NA              365.
## 12 ETH    2020-09-09 22:00:39      353.            353.              NA              367.
## 13 ETH    2020-09-09 23:00:38      355.            353.              NA              368.
## 14 ETH    2020-09-10 00:00:39      351.            355.              NA              368.
## 15 ETH    2020-09-10 01:00:39      355.            351.              NA              369.
## 16 ETH    2020-09-10 02:00:39      368.            355.              NA              366.
## 17 ETH    2020-09-10 03:00:40      367.            368.              NA              363.
## 18 ETH    2020-09-10 04:00:39      371.            367.              NA              356.
## 19 ETH    2020-09-10 05:00:39      373.            371.              NA              357.
## 20 ETH    2020-09-10 06:00:39      370.            373.              NA              361.
## 21 ETH    2020-09-10 07:00:40      367.            370.              NA              363.
## 22 ETH    2020-09-10 08:00:46      363.            367.              NA              362.
## 23 ETH    2020-09-10 09:00:39      364.            363.              NA              365.
## 24 ETH    2020-09-10 10:00:39      365.            364.              NA              368.
## 25 ETH    2020-09-10 11:00:38      363.            365.             347.             365.
## 26 ETH    2020-09-10 12:00:39      365.            363.             348.             363.
## 27 ETH    2020-09-10 13:00:39      372.            365.             347.             366.
## 28 ETH    2020-09-10 14:00:40      377.            372.             348.             365.
## 29 ETH    2020-09-10 15:00:39      367.            377.             353.             367.
## 30 ETH    2020-09-10 16:00:39      372.            367.             353.             369.
## # ... with 1,028 more rows
…
Our data now has the new columns training (train, test or holdout) and split (numbers 1-5) added to it, let’s take a look at the new columns:

select(cryptodata, training, split, date)

## Adding missing grouping variables: `symbol`

## # A tibble: 138,609 x 4
## # Groups:   symbol [129]
##    symbol training split date      
##    <chr>  <chr>    <dbl> <date>    
##  1 XTZ    train        1 2020-08-10
##  2 BCH    train        1 2020-08-10
##  3 BNB    train        1 2020-08-10
##  4 ETC    train        1 2020-08-10
##  5 NEO    train        1 2020-08-10
##  6 VLX    train        1 2020-08-10
##  7 SMT    train        1 2020-08-10
##  8 LEO    train        1 2020-08-10
##  9 STX    train        1 2020-08-10
## 10 GBX    train        1 2020-08-10
## # ... with 138,599 more rows
…
find_zero_var <- select(mutate(cryptodata, min_sd = min(sd(price_usd, na.rm=T), 
                                                        sd(target_price_24h, na.rm=T),
                                                        sd(lagged_price_1h, na.rm=T), 
                                                        sd(lagged_price_2h, na.rm=T),
                                                        sd(lagged_price_3h, na.rm=T), 
                                                        sd(lagged_price_6h, na.rm=T),
                                                        sd(lagged_price_12h, na.rm=T), 
                                                        sd(lagged_price_24h, na.rm=T))), min_sd)

## Adding missing grouping variables: `symbol`, `split`

# Show data
find_zero_var

## # A tibble: 138,609 x 3
## # Groups:   symbol, split [645]
##    symbol split    min_sd
##    <chr>  <dbl>     <dbl>
##  1 XTZ        1  0.183   
##  2 BCH        1 11.7     
##  3 BNB        1  0.842   
##  4 ETC        1  0.253   
##  5 NEO        1  0.905   
##  6 VLX        1  0.00100 
##  7 SMT        1  0.000143
##  8 LEO        1  0.110   
##  9 STX        1  0.000478
## 10 GBX        1  0.00277 
## # ... with 138,599 more rows
…
3.6 Nest data

[ADD HERE]

… explain goal and method

… First make sure groupings are correct

cryptodata <- group_by(cryptodata, symbol, split, training)

Example nesting data:

nest(cryptodata) 

## # A tibble: 900 x 4
## # Groups:   symbol, training, split [900]
##    symbol training split data               
##    <chr>  <chr>    <dbl> <list>             
##  1 XTZ    train        1 <tibble [176 x 10]>
##  2 BCH    train        1 <tibble [176 x 10]>
##  3 BNB    train        1 <tibble [177 x 10]>
##  4 ETC    train        1 <tibble [249 x 10]>
##  5 NEO    train        1 <tibble [177 x 10]>
##  6 VLX    train        1 <tibble [80 x 10]> 
##  7 SMT    train        1 <tibble [108 x 10]>
##  8 LEO    train        1 <tibble [196 x 10]>
##  9 STX    train        1 <tibble [152 x 10]>
## 10 GBX    train        1 <tibble [182 x 10]>
## # ... with 890 more rows
…
Now join all nested data into the same dataframe

# Join train and test
cryptodata_nested <- left_join(cryptodata_train, cryptodata_test,by = c("symbol", "split"))
# Join holdout
cryptodata_nested <- left_join(cryptodata_nested, cryptodata_holdout, by = c("symbol"))

New data:

cryptodata_nested

## # A tibble: 390 x 5
## # Groups:   symbol, split [390]
##    symbol split train_data          test_data          holdout_data      
##    <chr>  <dbl> <list>              <list>             <list>            
##  1 XTZ        1 <tibble [151 x 10]> <tibble [44 x 10]> <tibble [48 x 10]>
##  2 BCH        1 <tibble [152 x 10]> <tibble [45 x 10]> <tibble [48 x 10]>
##  3 BNB        1 <tibble [153 x 10]> <tibble [45 x 10]> <tibble [46 x 10]>
##  4 ETC        1 <tibble [225 x 10]> <tibble [63 x 10]> <tibble [67 x 10]>
##  5 NEO        1 <tibble [153 x 10]> <tibble [45 x 10]> <tibble [45 x 10]>
##  6 SMT        1 <tibble [63 x 10]>  <tibble [27 x 10]> <tibble [28 x 10]>
##  7 LEO        1 <tibble [161 x 10]> <tibble [50 x 10]> <tibble [51 x 10]>
##  8 STX        1 <tibble [42 x 10]>  <tibble [38 x 10]> <tibble [39 x 10]>
##  9 EURS       1 <tibble [120 x 10]> <tibble [44 x 10]> <tibble [48 x 10]>
## 10 BTG        1 <tibble [223 x 10]> <tibble [66 x 10]> <tibble [70 x 10]>
## # ... with 380 more rows
…
