Section - 6 Evaluate Model Performance | CryptoResearchPaper.utf8
…
Now we can use map2() to use it to get the RMSE metric for both the test data and the holdout:

cryptodata_nested <- mutate(cryptodata_nested,
                            lm_rmse =  unlist(ifelse(split < 5, 
                                              map2(lm_test_predictions, test_data, evaluate_preds_rmse), 
                                              map2(lm_holdout_predictions, holdout_data, evaluate_preds_rmse))))

Look at the results:

select(cryptodata_nested, lm_rmse)

## Adding missing grouping variables: `symbol`, `split`

## # A tibble: 390 x 3
## # Groups:   symbol, split [390]
##    symbol split   lm_rmse
##    <chr>  <dbl>     <dbl>
##  1 XTZ        1  0.269   
##  2 BCH        1 14.3     
##  3 BNB        1  0.614   
##  4 ETC        1  0.183   
##  5 NEO        1  0.573   
##  6 SMT        1  0.000144
##  7 LEO        1  0.0464  
##  8 STX        1  0.00207 
##  9 EURS       1  0.00706 
## 10 BTG        1  0.372   
## # ... with 380 more rows
…
## Warning in cor(pred, obs, use = "pairwise.complete.obs"): the standard deviation is zero

## Warning in cor(pred, obs, use = "pairwise.complete.obs"): the standard deviation is zero

Now we have RMSE values for every model created for every cryptocurrency and split of the data:

rmse_scores <- select(cryptodata_nested, lm_rmse, xgb_rmse, xgbTree_rmse, nnet_rmse)

## Adding missing grouping variables: `symbol`, `split`

# Show RMSE scores
rmse_scores

## # A tibble: 390 x 6
## # Groups:   symbol, split [390]
##    symbol split   lm_rmse xgb_rmse xgbTree_rmse nnet_rmse
##    <chr>  <dbl>     <dbl>    <dbl>        <dbl>     <dbl>
##  1 XTZ        1  0.269     0.459        0.355     0.549  
##  2 BCH        1 14.3      11.1          9.63     12.0    
##  3 BNB        1  0.614     0.581        0.564     2.52   
##  4 ETC        1  0.183     0.156        0.173     0.219  
##  5 NEO        1  0.573     0.430        0.322     1.39   
##  6 SMT        1  0.000144 NA           NA         0.00103
##  7 LEO        1  0.0464    0.110        0.0695    0.0737 
##  8 STX        1  0.00207  NA           NA         0.00586
##  9 EURS       1  0.00706   0.00464      0.00625   0.122  
## 10 BTG        1  0.372    NA           NA         0.332  
## # ... with 380 more rows

And the R Squared values:

rsq_scores <- select(cryptodata_nested, lm_rsq, xgb_rsq, xgbTree_rsq, nnet_rsq)

## Adding missing grouping variables: `symbol`, `split`

# Show R^2 scores
rsq_scores

## # A tibble: 390 x 6
## # Groups:   symbol, split [390]
##    symbol split  lm_rsq  xgb_rsq xgbTree_rsq nnet_rsq
##    <chr>  <dbl>   <dbl>    <dbl>       <dbl>    <dbl>
##  1 XTZ        1 0.0590   0.356      0.000344   NA    
##  2 BCH        1 0.541    0.513      0.626      NA    
##  3 BNB        1 0.488    0.334      0.389      NA    
##  4 ETC        1 0.0368   0.0573     0.0718     NA    
##  5 NEO        1 0.147    0.236      0.0805     NA    
##  6 SMT        1 0.865   NA         NA           0.925
##  7 LEO        1 0.00215  0.00143    0.0161      0.132
##  8 STX        1 0.122    0.137      0.179       0.446
##  9 EURS       1 0.546    0.104      0.332       0.333
## 10 BTG        1 0.103    0.109      0.0807     NA    
## # ... with 380 more rows
…
