Section - 5 Predictive Modeling | CryptoResearchPaper.utf8
…
5.1 Example Simple Model

…First need to run example normal lm model, etc…

5.1.1 Using Functional Programming

linear_model <- function(df){
  lm(price_usd ~ . -date_time_utc -date, data = df)
}

Can now use it for map()

cryptodata_nested %>% mutate(lm_model = map(train_data, linear_model))

## # A tibble: 390 x 6
## # Groups:   symbol, split [390]
##    symbol split train_data          test_data          holdout_data       lm_model
##    <chr>  <dbl> <list>              <list>             <list>             <list>  
##  1 XTZ        1 <tibble [151 x 10]> <tibble [44 x 10]> <tibble [48 x 10]> <lm>    
##  2 BCH        1 <tibble [152 x 10]> <tibble [45 x 10]> <tibble [48 x 10]> <lm>    
##  3 BNB        1 <tibble [153 x 10]> <tibble [45 x 10]> <tibble [46 x 10]> <lm>    
##  4 ETC        1 <tibble [225 x 10]> <tibble [63 x 10]> <tibble [67 x 10]> <lm>    
##  5 NEO        1 <tibble [153 x 10]> <tibble [45 x 10]> <tibble [45 x 10]> <lm>    
##  6 SMT        1 <tibble [63 x 10]>  <tibble [27 x 10]> <tibble [28 x 10]> <lm>    
##  7 LEO        1 <tibble [161 x 10]> <tibble [50 x 10]> <tibble [51 x 10]> <lm>    
##  8 STX        1 <tibble [42 x 10]>  <tibble [38 x 10]> <tibble [39 x 10]> <lm>    
##  9 EURS       1 <tibble [120 x 10]> <tibble [44 x 10]> <tibble [48 x 10]> <lm>    
## 10 BTG        1 <tibble [223 x 10]> <tibble [66 x 10]> <tibble [70 x 10]> <lm>    
## # ... with 380 more rows
…
## Warning in predict.lm(modelFit, newdata): prediction from a rank-deficient fit may be misleading

## Warning in predict.lm(modelFit, newdata): prediction from a rank-deficient fit may be misleading

## Warning in predict.lm(modelFit, newdata): prediction from a rank-deficient fit may be misleading

## Warning in predict.lm(modelFit, newdata): prediction from a rank-deficient fit may be misleading

We can view the results:

select(cryptodata_nested, lm_test_predictions, lm_holdout_predictions)

## Adding missing grouping variables: `symbol`, `split`

## # A tibble: 390 x 4
## # Groups:   symbol, split [390]
##    symbol split lm_test_predictions lm_holdout_predictions
##    <chr>  <dbl> <list>              <list>                
##  1 XTZ        1 <dbl [44]>          <dbl [48]>            
##  2 BCH        1 <dbl [45]>          <dbl [48]>            
##  3 BNB        1 <dbl [45]>          <dbl [46]>            
##  4 ETC        1 <dbl [63]>          <dbl [67]>            
##  5 NEO        1 <dbl [45]>          <dbl [45]>            
##  6 SMT        1 <dbl [27]>          <dbl [28]>            
##  7 LEO        1 <dbl [50]>          <dbl [51]>            
##  8 STX        1 <dbl [38]>          <dbl [39]>            
##  9 EURS       1 <dbl [44]>          <dbl [48]>            
## 10 BTG        1 <dbl [66]>          <dbl [70]>            
## # ... with 380 more rows
…
